<svg id="Group_7586" data-name="Group 7586" xmlns="http://www.w3.org/2000/svg" xmlns:xlink="http://www.w3.org/1999/xlink" width="48" height="48" viewBox="0 0 48 48">
  <defs>
    <clipPath id="clip-path">
      <rect id="Rectangle_29" data-name="Rectangle 29" width="48" height="48" fill="none" stroke="#bcd7ef" stroke-width="1"/>
    </clipPath>
  </defs>
  <g id="Group_7586-2" data-name="Group 7586" clip-path="url(#clip-path)">
    <path id="Path_228" data-name="Path 228" d="M6,29V19a18,18,0,0,1,36,0V29" fill="none" stroke="#bcd7ef" stroke-miterlimit="10" stroke-width="2"/>
    <path id="Path_229" data-name="Path 229" d="M42,30h3a2,2,0,0,0,2-2V22a2,2,0,0,0-2-2H42Z" fill="none" stroke="#bcd7ef" stroke-miterlimit="10" stroke-width="2"/>
    <path id="Path_230" data-name="Path 230" d="M6,30H3a2,2,0,0,1-2-2V22a2,2,0,0,1,2-2H6Z" fill="none" stroke="#bcd7ef" stroke-miterlimit="10" stroke-width="2"/>
    <path id="Path_231" data-name="Path 231" d="M29,13A10,10,0,0,1,19,23H10V33a14,14,0,0,0,28,0V22.949A10,10,0,0,1,29,13Z" fill="none" stroke="#bcd7ef" stroke-miterlimit="10" stroke-width="2"/>
    <path id="Path_232" data-name="Path 232" d="M24,39H35a7,7,0,0,0,7-7V30" fill="none" stroke="#bcd7ef" stroke-linecap="round" stroke-linejoin="round" stroke-width="2"/>
  </g>
</svg>
